{
    "paramList": [
        {
            "code": "network_interface",
            "label": "Force network interface",
            "section": "network",
            "render": "STR",
            "getter": "getNetworkInterface",
            "setter": "setNetworkInterface",
            "setterTypes": [
                "java.lang.String"
            ],
            "options": [],
            "init": ""
        },
        {
            "code": "hostname",
            "label": "Server Host",
            "section": "network",
            "render": "STR",
            "getter": "getServerHostname",
            "setter": "setHostname",
            "setterTypes": [
                "java.lang.String"
            ],
            "options": [],
            "init": ""
        },
        {
            "code": "port",
            "label": "Server Port",
            "section": "network",
            "render": "INT",
            "getter": "getServerPort",
            "setter": "setServerPort",
            "setterTypes": [
                "int"
            ],
            "options": [],
            "init": ""
        },
        {
            "code": "ip_filter",
            "label": "Filter IPs (whitelist)",
            "section": "network",
            "render": "STR",
            "getter": "getIpFilter",
            "setter": "setIpFilter",
            "setterTypes": [
                "java.lang.String"
            ],
            "options": [],
            "init": ""
        },
        {
            "code": "maximumbitrate",
            "label": "Max bitrate (Mb/s)",
            "section": "network",
            "render": "STR",
            "getter": "getMaximumBitrate",
            "setter": "setMaximumBitrate",
            "setterTypes": [
                "java.lang.String"
            ],
            "options": [],
            "init": ""
        },
        {
            "code": "external_network",
            "label": "Use external network",
            "section": "network",
            "render": "BOOL",
            "getter": "getExternalNetwork",
            "setter": "setExternalNetwork",
            "setterTypes": [
                "boolean"
            ],
            "options": [],
            "init": ""
        },
        {
            "code": "http_engine_v2",
            "label": "HTTP Engine v2",
            "section": "network",
            "render": "BOOL",
            "getter": "isHTTPEngineV2",
            "setter": "setHTTPEngineV2",
            "setterTypes": [
                "boolean"
            ],
            "options": [],
            "init": ""
        },
        {
            "code": "prevents_sleep_mode",
            "label": "Prevent OS sleep",
            "section": "http",
            "render": "BOOL",
            "getter": "isPreventsSleep",
            "setter": "setPreventsSleep",
            "setterTypes": [
                "boolean"
            ],
            "options": [],
            "init": ""
        },
        {
            "code": "renderer_force_default",
            "label": "Force default renderer",
            "section": "http",
            "render": "BOOL",
            "getter": "isRendererForceDefault",
            "setter": "setRendererForceDefault",
            "setterTypes": [
                "boolean"
            ],
            "options": [],
            "init": ""
        },
        {
            "code": "default_renderer",
            "label": "Default render",
            "section": "http",
            "render": "STR",
            "getter": "getRendererDefault",
            "setter": "setRendererDefault",
            "setterTypes": [
                "java.lang.String"
            ],
            "options": [],
            "init": ""
        },
        {
            "code": "ignored_renderers",
            "label": "Ignored renders",
            "section": "http",
            "render": "STR",
            "getter": "getIgnoredRenderers",
            "setter": "setIgnoredRenderers",
            "setterTypes": [
                "java.lang.String"
            ],
            "options": [],
            "init": ""
        },
        {
            "code": "thumbnails",
            "label": "Generate thumbnails",
            "section": "thumbnails",
            "render": "BOOL",
            "getter": "isThumbnailGenerationEnabled",
            "setter": "setThumbnailGenerationEnabled",
            "setterTypes": [
                "boolean"
            ],
            "options": [],
            "init": ""
        },
        {
            "code": "use_mplayer_for_video_thumbs",
            "label": "Use MPlayer for video thumbnails",
            "section": "thumbnails",
            "render": "BOOL",
            "getter": "isUseMplayerForVideoThumbs",
            "setter": "setUseMplayerForVideoThumbs",
            "setterTypes": [
                "boolean"
            ],
            "options": [],
            "init": ""
        },
        {
            "code": "thumbnail_seek_pos",
            "label": "Thumbnail seeking position (sec)",
            "section": "thumbnails",
            "render": "INT",
            "getter": "getThumbnailSeekPos",
            "setter": "setThumbnailSeekPos",
            "setterTypes": [
                "int"
            ],
            "options": [],
            "init": ""
        },
        {
            "code": "image_thumbnails",
            "label": "Show image thumbnails",
            "section": "thumbnails",
            "render": "BOOL",
            "getter": "getImageThumbnailsEnabled",
            "setter": "setImageThumbnailsEnabled",
            "setterTypes": [
                "boolean"
            ],
            "options": [],
            "init": ""
        },
        {
            "code": "dvd_isos_thumbnails",
            "label": "Show DVD ISO thumbnails",
            "section": "thumbnails",
            "render": "BOOL",
            "getter": "isDvdIsoThumbnails",
            "setter": "setDvdIsoThumbnails",
            "setterTypes": [
                "boolean"
            ],
            "options": [],
            "init": ""
        },
        {
            "code": "audio_thumbnails_method",
            "label": "Audio thumb import",
            "section": "thumbnails",
            "render": "INTOPT",
            "getter": "getAudioThumbnailMethod",
            "setter": "setAudioThumbnailMethod",
            "setterTypes": [
                "int"
            ],
            "options": {
                "None": 0,
                "amazon.com": 1,
                "discogs.com": 2
            },
            "init": ""
        },
        {
            "code": "alternate_thumb_folder",
            "label": "Alternate video cover folder",
            "section": "thumbnails",
            "render": "FOLDER",
            "getter": "getAlternateThumbFolder",
            "setter": "setAlternateThumbFolder",
            "setterTypes": [
                "java.lang.String"
            ],
            "options": [],
            "init": ""
        },
        {
            "code": "ignore_the_word_the",
            "label": "Ignore the in file sorting",
            "section": "file",
            "render": "BOOL",
            "getter": "isIgnoreTheWordThe",
            "setter": "setIgnoreTheWordThe",
            "setterTypes": [
                "boolean"
            ],
            "options": [],
            "init": ""
        },
        {
            "code": "prettify_filenames",
            "label": "Prettify file names",
            "section": "file",
            "render": "BOOL",
            "getter": "isPrettifyFilenames",
            "setter": "setPrettifyFilenames",
            "setterTypes": [
                "boolean"
            ],
            "options": [],
            "init": ""
        },
        {
            "code": "hide_extensions",
            "label": "Hide file extension",
            "section": "file",
            "render": "BOOL",
            "getter": "isHideExtensions",
            "setter": "setHideExtensions",
            "setterTypes": [
                "boolean"
            ],
            "options": [],
            "init": ""
        },
        {
            "code": "hide_enginenames",
            "label": "Hide engine names",
            "section": "file",
            "render": "BOOL",
            "getter": "isHideEngineNames",
            "setter": "setHideEngineNames",
            "setterTypes": [
                "boolean"
            ],
            "options": [],
            "init": ""
        },
        {
            "code": "hidevideosettings",
            "label": "Hide ServerSettings folder",
            "section": "virtual",
            "render": "BOOL",
            "getter": "getHideVideoSettings",
            "setter": "setHideVideoSettings",
            "setterTypes": [
                "boolean"
            ],
            "options": [],
            "init": ""
        },
        {
            "code": "hide_transcode_folder",
            "label": "Hide Transcode folder",
            "section": "virtual",
            "render": "BOOL",
            "getter": "getHideTranscodeEnabled",
            "setter": "setHideTranscodeEnabled",
            "setterTypes": [
                "boolean"
            ],
            "options": [],
            "init": ""
        },
        {
            "code": "hide_live_subtitles_folder",
            "label": "Hide LiveSubtitles folder",
            "section": "virtual",
            "render": "BOOL",
            "getter": "isHideLiveSubtitlesFolder",
            "setter": "setHideLiveSubtitlesFolder",
            "setterTypes": [
                "boolean"
            ],
            "options": [],
            "init": ""
        },
        {
            "code": "enable_archive_browsing",
            "label": "Browse compressed archives",
            "section": "virtual",
            "render": "BOOL",
            "getter": "isArchiveBrowsing",
            "setter": "setArchiveBrowsing",
            "setterTypes": [
                "boolean"
            ],
            "options": [],
            "init": ""
        },
        {
            "code": "hide_empty_folders",
            "label": "Hide empty folders",
            "section": "virtual",
            "render": "BOOL",
            "getter": "isHideEmptyFolders",
            "setter": "setHideEmptyFolders",
            "setterTypes": [
                "boolean"
            ],
            "options": [],
            "init": ""
        },
        {
            "code": "resume",
            "label": "Enable video resuming",
            "section": "virtual",
            "render": "BOOL",
            "getter": "isResumeEnabled",
            "setter": "setResume",
            "setterTypes": [
                "boolean"
            ],
            "options": [],
            "init": ""
        },
        {
            "code": "usecache",
            "label": "Enable Cache",
            "section": "virtual",
            "render": "BOOL",
            "getter": "getUseCache",
            "setter": "setUseCache",
            "setterTypes": [
                "boolean"
            ],
            "options": [],
            "init": ""
        },
        {
            "code": "hide_media_library_folder",
            "label": "Hide Cache folder",
            "section": "virtual",
            "render": "BOOL",
            "getter": "isHideMediaLibraryFolder",
            "setter": "setHideMediaLibraryFolder",
            "setterTypes": [
                "boolean"
            ],
            "options": [],
            "init": ""
        },
        {
            "code": "atz_limit",
            "label": "File number before A-Z",
            "section": "virtual",
            "setterTypes": [
                "int"
            ],
            "render": "INT",
            "getter": "getATZLimit",
            "setter": "setATZLimit",
            "options": [],
            "init": ""
        }
    ],
    "sharesParam": {
        "code": "atz_limit",
        "label": "Shares",
        "section": "sharedfolders",
        "render": "SHAREDFOLDERS",
        "getter": "getFolders",
        "getterTypes": [
            "java.util.ArrayList"
        ],
        "setter": "setFolders",
        "setterTypes": [
            "java.lang.String"
        ],
        "options": [],
        "init": ""
    }
}